{
    "game_files": {
        "description": "Core assets needed to play the game.",
        "version": "18.0328",
        "checksum": "29e8cdc6e7679c89424f61fb9a5ecba46872d3322943e384306ade26cfff99fc"
    },
    "soundtrack": {
        "description": "Original soundtrack (based on Dreamcast version).",
        "version": "20.1008",
        "checksum": "0753af88c854b8f3be5568a50ccf904611add7239fc55cfffb736d8aaf9da50e"
    },
    "io_cars": {
        "description": "Additional cars created by the community. Used in regular I/O races.",
        "version": "21.0609",
        "checksum": "371ded93de07c31dfd63a130418ff3ab703e0909b56ad7a456f042c8472c9b4b"
    },
    "io_cars_bonus": {
        "description": "Additional cars created by the community. Reserved for special and unofficial events.",
        "version": "21.0609",
        "checksum": "05b5f98819d0df8eedfc4946aa157c63711232e8e002d00f51633d1afa872eb7"
    },
    "io_clockworks": {
        "description": "The three original Acclaim Clockworks mixed together with thirteen Clockworks by RV_Passion.",
        "version": "18.0415",
        "checksum": "8f664dda382ab2d3b279a1e7e4d40942c9872e426ae92c3d8ff11c4641169bf8"
    },
    "io_clockworks_modern": {
        "description": "Twelve original Clockworks by RV_Pure.",
        "version": "18.0807",
        "checksum": "f62bbf0e30ea75912a974623549a2ca45fe420088ea0f548b3ba9a87780ec653"
    },
    "io_lmstag": {
        "description": "Additional Battle Tag and Last Man Standing levels created by the community.",
        "version": "21.0609",
        "checksum": "68d392ba428353e586a35c7e7d53931149dc323b01ba16be8852720fe0bceb6a"
    },
    "io_loadlevel": {
        "description": "Loading screens for custom tracks created by Balesz.",
        "version": "18.0326",
        "checksum": "5bb4ffcc67ec6ae2905bcf5c8634829aa0cd213f2374c7c27da0927b76edf3fb"
    },
    "io_music": {
        "description": "Extra music for the I/O track pack.",
        "version": "21.0609",
        "checksum": "aff78dbec6ed982b64390365c73a6e21c6e1f8e5b566780ba185d3d08ad84231"
    },
    "io_skins": {
        "description": "Additional skins for cars included in the io_cars package.",
        "version": "21.0609",
        "checksum": "daef6320b9aac36558b53b8a77332deb221be527cf51f24032a5f14692dec200"
    },
    "io_skins_bonus": {
        "description": "Additional skins for cars included in the io_cars_bonus package.",
        "version": "21.0609",
        "checksum": "58e28f0af2f945f4cafe8aa42b7ddeec52097bbd959812b052ede6b017f5c9c9"
    },
    "io_tracks": {
        "description": "Additional tracks created by the community. Used in regular I/O races.",
        "version": "21.0609",
        "checksum": "def19cd62f80529f774d284bedc3edcaf9b924d9256a83f6287195a1d4a1bdab"
    },
    "io_tracks_bonus": {
        "description": "Additional tracks created by the community. Reserved for special and unofficial events.",
        "version": "21.0609",
        "checksum": "2a2227c83c4c6059f744a8e78e18dbed6a1b243d2ba293b2b195544972907810"
    },
    "io_tracks_circuit": {
        "description": "Additional custom tracks used in drifting or other special events.",
        "version": "21.0308",
        "checksum": "333aac578503f27dc1cf5a7a87c3fdf49a65f5ceb93ab5ac2801751e6bd25b4a"
    },
    "io_soundtrack": {
        "description": "Free soundtrack alternative made by the community.",
        "version": "20.0302",
        "checksum": "d51e52d23d74d26aa93d8b96035d153ccf8e69f6bc93db7e3b615de060155010"
    },
    "rvgl_assets": {
        "description": "Common data files for RVGL.",
        "version": "21.0125",
        "checksum": "836bfab1c1a4becca0b3cc53e182539951d7a374e3dbd9f63034c7d7e04ecce9"
    },
    "rvgl_win32": {
        "description": "32-bit Windows binaries for RVGL.",
        "version": "21.0125",
        "checksum": "40731b02c6702c6dd7719b0d0b6df219b53746d7340f0ca2ced5de080adf0dd2"
    },
    "rvgl_win64": {
        "description": "64-bit Windows binaries for RVGL.",
        "version": "21.0125",
        "checksum": "03c62f60b86d09aa9f40fec7dc4c82e4a26402c0663d5d1ec7c5c821bd47d756"
    },
    "rvgl_linux": {
        "description": "GNU/Linux binaries for RVGL (32-bit and 64-bit).",
        "version": "21.0125",
        "checksum": "04633d158f3bd5752606d561dade6db60c94ab80b5931bc474a0e7bbb5ae8962"
    },
    "rvgl_dcpack": {
        "description": "Dreamcast content pack for RVGL (Rooftops and additional cars).",
        "version": "20.0905",
        "checksum": "846a81c6f9566206074a88a17886ddf94183e31c3b7582e341d4e6529558c9d2"
    }
}